…
``` r
distinct(all_inverts_mdr, invert_species) %>%
  arrange(invert_species)
```

    ## # A tibble: 28 × 1
    ##    invert_species
    ##    <chr>         
    ##  1 Aste_f        
    ##  2 Aste_r        
    ##  3 Aste_v        
    ##  4 Botr_s        
    ##  5 Canc_b        
    ##  6 Canc_i        
    ##  7 Carc_m        
    ##  8 Cion_i        
    ##  9 Crep_f        
    ## 10 Dide_sp       
    ## # ℹ 18 more rows
…
